1Cuatri_2º/EstrucComp/P2/Ficheros_p2/microc_tb.vcd
$date
	Sun Nov 16 15:06:39 2025
$end
$version
	Icarus Verilog
$end
$timescale
	10ps
$end
$scope module microc_tb $end
$var wire 1 ! z $end
$var wire 6 " Opcode [5:0] $end
$var reg 3 # Op [2:0] $end
$var reg 1 $ clk $end
$var reg 1 % reset $end
$var reg 1 & s_inc $end
$var reg 1 ' s_inm $end
$var reg 1 ( we3 $end
$var reg 1 ) wez $end
$scope module micro $end
$var wire 3 * Op [2:0] $end
$var wire 1 $ clk $end
$var wire 1 % reset $end
$var wire 1 & s_inc $end
$var wire 1 ' s_inm $end
$var wire 1 ( we3 $end
$var wire 1 ) wez $end
$var wire 1 ! z $end
$var wire 8 + wd3 [7:0] $end
$var wire 10 , sum_out [9:0] $end
$var wire 8 - rd2 [7:0] $end
$var wire 8 . rd1 [7:0] $end
$var wire 10 / pc_out [9:0] $end
$var wire 10 0 pc_in [9:0] $end
$var wire 16 1 instruccion [15:0] $end
$var wire 10 2 dir_salto [9:0] $end
$var wire 8 3 alu_out [7:0] $end
$var wire 6 4 Opcode [5:0] $end
$scope module ALU $end
$var wire 3 5 Op [2:0] $end
$var wire 8 6 B [7:0] $end
$var wire 8 7 A [7:0] $end
$var reg 8 8 S [7:0] $end
$var reg 1 ! zero $end
$upscope $end
$scope module Banco_reg $end
$var wire 4 9 RA1 [3:0] $end
$var wire 4 : RA2 [3:0] $end
$var wire 4 ; WA3 [3:0] $end
$var wire 1 $ clk $end
$var wire 1 ( we3 $end
$var wire 8 < WD3 [7:0] $end
$var wire 1 = R_debug $end
$var wire 8 > RD2 [7:0] $end
$var wire 8 ? RD1 [7:0] $end
$upscope $end
$scope module PC $end
$var wire 1 $ clk $end
$var wire 1 % reset $end
$var wire 10 @ D [9:0] $end
$var parameter 32 A WIDTH $end
$var reg 10 B Q [9:0] $end
$upscope $end
$scope module memoria $end
$var wire 10 C Address [9:0] $end
$var wire 16 D Data [15:0] $end
$var wire 1 $ clk $end
$upscope $end
$scope module mux1 $end
$var wire 10 E D1 [9:0] $end
$var wire 1 & s $end
$var wire 10 F Y [9:0] $end
$var wire 10 G D0 [9:0] $end
$var parameter 32 H WIDTH $end
$upscope $end
$scope module mux3 $end
$var wire 8 I D0 [7:0] $end
$var wire 8 J D1 [7:0] $end
$var wire 1 ' s $end
$var wire 8 K Y [7:0] $end
$var parameter 32 L WIDTH $end
$upscope $end
$scope module sumador $end
$var wire 10 M A [9:0] $end
$var wire 10 N B [9:0] $end
$var wire 10 O Y [9:0] $end
$upscope $end
$upscope $end
$upscope $end
$enddefinitions $end
$comment Show the parameter values. $end
$dumpall
b1000 L
b1010 H
b1010 A
$end
#0
$dumpvars
b1 O
b1 N
b0 M
b0 K
b0 J
b0 I
b1 G
b1 F
b101 E
b100000000000101 D
b0 C
b0 B
b1 @
b0 ?
b0 >
0=
b0 <
b0 ;
b0 :
b101 9
b0 8
b0 7
b0 6
b0 5
b10000 4
b0 3
b101 2
b100000000000101 1
b1 0
b0 /
b0 .
b0 -
b1 ,
b0 +
b0 *
0)
0(
0'
0&
1%
1$
b0 #
b10000 "
1!
$end
#500
0%
#1000
0$
#2000
b0 "
b0 4
b0 E
b0 9
b0 2
b10 0
b10 @
b10 F
b0 1
b0 D
b10 ,
b10 G
b10 O
b1 /
b1 B
b1 C
b1 M
1$
#3000
0$
#4000
b10000 "
b10000 4
b101 E
b101 9
b101 2
b100000000000101 1
b100000000000101 D
b1 ,
b1 G
b1 O
b0 /
b0 B
b0 C
b0 M
b101 0
b101 @
b101 F
1$
1&
1(
1'
#5000
0$
#6000
b10 0
b10 @
b10 F
b100 "
b100 4
b10 E
b10 9
b10 2
b1000000000010 1
b1000000000010 D
b110 ,
b110 G
b110 O
b101 /
b101 B
b101 C
b101 M
1$
#7000
0$
#8000
b0 0
b0 @
b0 F
b0 "
b0 4
b0 E
b0 9
b0 2
b0 1
b0 D
b11 ,
b11 G
b11 O
b10 /
b10 B
b10 C
b10 M
1$
#9000
0$
#10000
b101 0
b101 @
b101 F
b10000 "
b10000 4
b101 E
b101 9
b101 2
b100000000000101 1
b100000000000101 D
b1 ,
b1 G
b1 O
b0 /
b0 B
b0 C
b0 M
1$
#11000
0$
#12000
b10 0
b10 @
b10 F
b100 "
b100 4
b10 E
b10 9
b10 2
b1000000000010 1
b1000000000010 D
b110 ,
b110 G
b110 O
b101 /
b101 B
b101 C
b101 M
1$
1)
b10 #
b10 *
b10 5
0'
#13000
0$
#14000
b0 0
b0 @
b0 F
b0 "
b0 4
b0 E
b0 9
b0 2
b0 1
b0 D
b11 ,
b11 G
b11 O
b10 /
b10 B
b10 C
b10 M
1$
b11 #
b11 *
b11 5
#15000
0$
#16000
b100 ,
b100 G
b100 O
b11 /
b11 B
b11 C
b11 M
b100 0
b100 @
b100 F
1$
0)
0&
b0 #
b0 *
b0 5
0(
#17000
0$
#18000
b10000 "
b10000 4
b101 E
b101 9
b101 2
b100000000000101 1
b100000000000101 D
b1 ,
b1 G
b1 O
b0 /
b0 B
b0 C
b0 M
b101 0
b101 @
b101 F
1$
1)
1&
b10 #
b10 *
b10 5
1(
#19000
0$
#20000
b10 0
b10 @
b10 F
b100 "
b100 4
b10 E
b10 9
b10 2
b1000000000010 1
b1000000000010 D
b110 ,
b110 G
b110 O
b101 /
b101 B
b101 C
b101 M
1$
b11 #
b11 *
b11 5
#21000
0$
#22000
b0 0
b0 @
b0 F
b0 "
b0 4
b0 E
b0 9
b0 2
b0 1
b0 D
b11 ,
b11 G
b11 O
b10 /
b10 B
b10 C
b10 M
1$
0)
b0 #
b0 *
b0 5
0(
#23000
0$
#24000
b100 ,
b100 G
b100 O
b11 /
b11 B
b11 C
b11 M
b100 0
b100 @
b100 F
1$
0&
#25000
0$
#26000
b101 0
b101 @
b101 F
b101 ,
b101 G
b101 O
b100 /
b100 B
b100 C
b100 M
1$
#27000
0$
#28000
b100 "
b100 4
b10 E
b10 9
b10 2
b110 0
b110 @
b110 F
b1000000000010 1
b1000000000010 D
b110 ,
b110 G
b110 O
b101 /
b101 B
b101 C
b101 M
1$
#29000
0$
#30000
b10 J
b100001 E
b10 ;
b1 9
b100001 2
b111 0
b111 @
b111 F
b1000000100001 1
b1000000100001 D
b111 ,
b111 G
b111 O
b110 /
b110 B
b110 C
b110 M
1$
