1Cuatri_2º/EstrucComp/P2/Ficheros_p2/microc_tb.vcd
$date
	Sun Nov 16 13:32:46 2025
$end
$version
	Icarus Verilog
$end
$timescale
	10ps
$end
$scope module microc_tb $end
$var wire 1 ! z $end
$var wire 6 " Opcode [5:0] $end
$var reg 3 # Op [2:0] $end
$var reg 1 $ clk $end
$var reg 1 % reset $end
$var reg 1 & s_inc $end
$var reg 1 ' s_inm $end
$var reg 1 ( we3 $end
$var reg 1 ) wez $end
$scope module micro $end
$var wire 3 * Op [2:0] $end
$var wire 1 $ clk $end
$var wire 1 % reset $end
$var wire 1 & s_inc $end
$var wire 1 ' s_inm $end
$var wire 1 ( we3 $end
$var wire 1 ) wez $end
$var wire 1 ! z $end
$var wire 8 + wd3 [7:0] $end
$var wire 10 , sum_out [9:0] $end
$var wire 8 - rd2 [7:0] $end
$var wire 8 . rd1 [7:0] $end
$var wire 10 / pc_out [9:0] $end
$var wire 10 0 pc_in [9:0] $end
$var wire 16 1 instruccion [15:0] $end
$var wire 10 2 dir_salto [9:0] $end
$var wire 8 3 alu_out [7:0] $end
$var wire 6 4 Opcode [5:0] $end
$scope module ALU $end
$var wire 3 5 Op [2:0] $end
$var wire 8 6 B [7:0] $end
$var wire 8 7 A [7:0] $end
$var reg 8 8 S [7:0] $end
$var reg 1 ! zero $end
$upscope $end
$scope module Banco_reg $end
$var wire 4 9 RA1 [3:0] $end
$var wire 4 : RA2 [3:0] $end
$var wire 4 ; WA3 [3:0] $end
$var wire 1 $ clk $end
$var wire 1 ( we3 $end
$var wire 8 < WD3 [7:0] $end
$var wire 8 = RD2 [7:0] $end
$var wire 8 > RD1 [7:0] $end
$upscope $end
$scope module PC $end
$var wire 1 $ clk $end
$var wire 1 % reset $end
$var wire 10 ? D [9:0] $end
$var parameter 32 @ WIDTH $end
$var reg 10 A Q [9:0] $end
$upscope $end
$scope module memoria $end
$var wire 10 B Address [9:0] $end
$var wire 16 C Data [15:0] $end
$var wire 1 $ clk $end
$upscope $end
$scope module mux1 $end
$var wire 10 D D1 [9:0] $end
$var wire 1 & s $end
$var wire 10 E Y [9:0] $end
$var wire 10 F D0 [9:0] $end
$var parameter 32 G WIDTH $end
$upscope $end
$scope module mux3 $end
$var wire 8 H D0 [7:0] $end
$var wire 8 I D1 [7:0] $end
$var wire 1 ' s $end
$var wire 8 J Y [7:0] $end
$var parameter 32 K WIDTH $end
$upscope $end
$scope module sumador $end
$var wire 10 L A [9:0] $end
$var wire 10 M B [9:0] $end
$var wire 10 N Y [9:0] $end
$upscope $end
$upscope $end
$upscope $end
$enddefinitions $end
$comment Show the parameter values. $end
$dumpall
b1000 K
b1010 G
b1010 @
$end
#0
$dumpvars
b1 N
b1 M
b0 L
b0 J
b0 I
b0 H
b1 F
b1 E
b101 D
b100000000000101 C
b0 B
b0 A
b1 ?
b0 >
b0 =
b0 <
b0 ;
b0 :
b101 9
b0 8
b0 7
b0 6
b0 5
b10000 4
b0 3
b101 2
b100000000000101 1
b1 0
b0 /
b0 .
b0 -
b1 ,
b0 +
b0 *
0)
0(
0'
0&
1%
1$
b0 #
b10000 "
1!
$end
#500
0%
#1000
0$
#2000
b0 "
b0 4
b0 D
b0 9
b0 2
b10 0
b10 ?
b10 E
b0 1
b0 C
b10 ,
b10 F
b10 N
b1 /
b1 A
b1 B
b1 L
1$
#3000
0$
#4000
b10000 "
b10000 4
b101 D
b101 9
b101 2
b100000000000101 1
b100000000000101 C
b1 ,
b1 F
b1 N
b0 /
b0 A
b0 B
b0 L
b101 0
b101 ?
b101 E
1$
1&
1(
1'
#5000
0$
#6000
b10 0
b10 ?
b10 E
b100 "
b100 4
b10 D
b10 9
b10 2
b1000000000010 1
b1000000000010 C
b110 ,
b110 F
b110 N
b101 /
b101 A
b101 B
b101 L
1$
#7000
0$
#8000
b0 0
b0 ?
b0 E
b0 "
b0 4
b0 D
b0 9
b0 2
b0 1
b0 C
b11 ,
b11 F
b11 N
b10 /
b10 A
b10 B
b10 L
1$
#9000
0$
#10000
b101 0
b101 ?
b101 E
b10000 "
b10000 4
b101 D
b101 9
b101 2
b100000000000101 1
b100000000000101 C
b1 ,
b1 F
b1 N
b0 /
b0 A
b0 B
b0 L
1$
#11000
0$
#12000
b10 0
b10 ?
b10 E
b100 "
b100 4
b10 D
b10 9
b10 2
b1000000000010 1
b1000000000010 C
b110 ,
b110 F
b110 N
b101 /
b101 A
b101 B
b101 L
1$
1)
b10 #
b10 *
b10 5
0'
#13000
0$
#14000
b0 0
b0 ?
b0 E
b0 "
b0 4
b0 D
b0 9
b0 2
b0 1
b0 C
b11 ,
b11 F
b11 N
b10 /
b10 A
b10 B
b10 L
1$
b11 #
b11 *
b11 5
#15000
0$
#16000
b100 ,
b100 F
b100 N
b11 /
b11 A
b11 B
b11 L
b100 0
b100 ?
b100 E
1$
0)
0&
b0 #
b0 *
b0 5
0(
#17000
0$
#18000
b10000 "
b10000 4
b101 D
b101 9
b101 2
b100000000000101 1
b100000000000101 C
b1 ,
b1 F
b1 N
b0 /
b0 A
b0 B
b0 L
b101 0
b101 ?
b101 E
1$
1)
1&
b10 #
b10 *
b10 5
1(
#19000
0$
#20000
b10 0
b10 ?
b10 E
b100 "
b100 4
b10 D
b10 9
b10 2
b1000000000010 1
b1000000000010 C
b110 ,
b110 F
b110 N
b101 /
b101 A
b101 B
b101 L
1$
b11 #
b11 *
b11 5
#21000
0$
#22000
b0 0
b0 ?
b0 E
b0 "
b0 4
b0 D
b0 9
b0 2
b0 1
b0 C
b11 ,
b11 F
b11 N
b10 /
b10 A
b10 B
b10 L
1$
0)
b0 #
b0 *
b0 5
0(
#23000
0$
#24000
b100 ,
b100 F
b100 N
b11 /
b11 A
b11 B
b11 L
b100 0
b100 ?
b100 E
1$
0&
#25000
0$
#26000
b101 0
b101 ?
b101 E
b101 ,
b101 F
b101 N
b100 /
b100 A
b100 B
b100 L
1$
#27000
0$
#28000
b100 "
b100 4
b10 D
b10 9
b10 2
b110 0
b110 ?
b110 E
b1000000000010 1
b1000000000010 C
b110 ,
b110 F
b110 N
b101 /
b101 A
b101 B
b101 L
1$
#29000
0$
#30000
b10 I
b100001 D
b10 ;
b1 9
b100001 2
b111 0
b111 ?
b111 E
b1000000100001 1
b1000000100001 C
b111 ,
b111 F
b111 N
b110 /
b110 A
b110 B
b110 L
1$
