1Cuatri_2º/EstrucComp/Tutorizada_1_EJ/Sesiones_previas_P1_entrega/sum4/sum4_tb.vcd
$date
	Mon Sep 22 16:51:20 2025
$end
$version
	Icarus Verilog
$end
$timescale
	10ps
$end
$scope module sum4_tb $end
$var wire 1 ! test_C_out $end
$var wire 1 " test_c_out $end
$var wire 4 # test_S [3:0] $end
$var reg 4 $ test_A [3:0] $end
$var reg 4 % test_B [3:0] $end
$var reg 1 & test_c_in $end
$scope module sum $end
$var wire 4 ' A [3:0] $end
$var wire 4 ( B [3:0] $end
$var wire 1 & c_in $end
$var wire 1 " c_out $end
$var wire 1 ) c3 $end
$var wire 1 * c2 $end
$var wire 1 + c1 $end
$var wire 4 , S [3:0] $end
$scope module sumador1 $end
$var wire 1 - a $end
$var wire 1 . b $end
$var wire 1 & c_in $end
$var wire 1 + c_out $end
$var wire 1 / sum $end
$var wire 1 0 s1 $end
$var wire 1 1 c2 $end
$var wire 1 2 c1 $end
$scope module semisumador1 $end
$var wire 1 - a $end
$var wire 1 . b $end
$var wire 1 2 carry $end
$var wire 1 0 sum $end
$upscope $end
$scope module semisumador2 $end
$var wire 1 0 a $end
$var wire 1 & b $end
$var wire 1 1 carry $end
$var wire 1 / sum $end
$upscope $end
$upscope $end
$scope module sumador2 $end
$var wire 1 3 a $end
$var wire 1 4 b $end
$var wire 1 + c_in $end
$var wire 1 * c_out $end
$var wire 1 5 sum $end
$var wire 1 6 s1 $end
$var wire 1 7 c2 $end
$var wire 1 8 c1 $end
$scope module semisumador1 $end
$var wire 1 3 a $end
$var wire 1 4 b $end
$var wire 1 8 carry $end
$var wire 1 6 sum $end
$upscope $end
$scope module semisumador2 $end
$var wire 1 6 a $end
$var wire 1 + b $end
$var wire 1 7 carry $end
$var wire 1 5 sum $end
$upscope $end
$upscope $end
$scope module sumador3 $end
$var wire 1 9 a $end
$var wire 1 : b $end
$var wire 1 * c_in $end
$var wire 1 ) c_out $end
$var wire 1 ; sum $end
$var wire 1 < s1 $end
$var wire 1 = c2 $end
$var wire 1 > c1 $end
$scope module semisumador1 $end
$var wire 1 9 a $end
$var wire 1 : b $end
$var wire 1 > carry $end
$var wire 1 < sum $end
$upscope $end
$scope module semisumador2 $end
$var wire 1 < a $end
$var wire 1 * b $end
$var wire 1 = carry $end
$var wire 1 ; sum $end
$upscope $end
$upscope $end
$scope module sumador4 $end
$var wire 1 ? a $end
$var wire 1 @ b $end
$var wire 1 ) c_in $end
$var wire 1 " c_out $end
$var wire 1 A sum $end
$var wire 1 B s1 $end
$var wire 1 C c2 $end
$var wire 1 D c1 $end
$scope module semisumador1 $end
$var wire 1 ? a $end
$var wire 1 @ b $end
$var wire 1 D carry $end
$var wire 1 B sum $end
$upscope $end
$scope module semisumador2 $end
$var wire 1 B a $end
$var wire 1 ) b $end
$var wire 1 C carry $end
$var wire 1 A sum $end
$upscope $end
$upscope $end
$upscope $end
$upscope $end
$enddefinitions $end
$comment Show the parameter values. $end
$dumpall
$end
#0
$dumpvars
xD
xC
xB
xA
0@
0?
x>
x=
x<
x;
0:
09
x8
x7
x6
x5
04
03
x2
x1
x0
x/
0.
0-
bx ,
x+
x*
x)
b0 (
b0 '
1&
b0 %
b0 $
bx #
x"
z!
$end
#100
00
02
06
08
0<
0>
0B
0D
#200
0+
0*
0)
0"
bx1 #
bx1 ,
1/
01
07
0=
0C
#300
05
0;
b1 #
b1 ,
0A
#2000
1.
1-
13
19
1?
b1 %
b1 (
b1111 $
b1111 '
0&
#2100
1+
12
16
1<
1B
b0 #
b0 ,
0/
#2200
1*
17
1;
b1100 #
b1100 ,
1A
#2300
1)
b1000 #
b1000 ,
0;
1=
#2400
1"
b0 #
b0 ,
0A
1C
#4000
14
1:
1@
b1111 %
b1111 (
1&
#4100
06
18
0<
1>
0B
1D
b1 #
b1 ,
1/
#4200
15
07
1;
0=
b1111 #
b1111 ,
1A
0C
#6000
0-
03
09
0?
b0 $
b0 '
#6100
0+
0*
0)
0"
10
02
16
08
1<
0>
1B
0D
#6200
1+
b1110 #
b1110 ,
0/
11
#6300
1*
b1100 #
b1100 ,
05
17
#6400
1)
b1000 #
b1000 ,
0;
1=
#6500
1"
b0 #
b0 ,
0A
1C
#8000
0.
0:
1-
19
b1010 %
b1010 (
b101 $
b101 '
0&
#8100
0+
b1 #
b1 ,
1/
01
#8200
0*
b11 #
b11 ,
15
07
#8300
0)
b111 #
b111 ,
1;
0=
#8400
0"
b1111 #
b1111 ,
1A
0C
